code,name,type,country,country_code,alternate_code,alternate_name
BKM,Buckinghamshire,two-tier county,GB,ENG,,buckingham
CAM,Cambridgeshire,two-tier county,GB,ENG,,cambridge
CMA,Cumbria,two-tier county,GB,ENG,,
DBY,Derbyshire,two-tier county,GB,ENG,,
DEV,Devon,two-tier county,GB,ENG,,
DOR,Dorset,two-tier county,GB,ENG,,
ESX,East Sussex,two-tier county,GB,ENG,,
ESS,Essex,two-tier county,GB,ENG,,
GLS,Gloucestershire,two-tier county,GB,ENG,,gloucester
HAM,Hampshire,two-tier county,GB,ENG,,
HRT,Hertfordshire,two-tier county,GB,ENG,,hertford
KEN,Kent,two-tier county,GB,ENG,,
LAN,Lancashire,two-tier county,GB,ENG,,
LEC,Leicestershire,two-tier county,GB,ENG,,
LIN,Lincolnshire,two-tier county,GB,ENG,,lincoln
NFK,Norfolk,two-tier county,GB,ENG,,
NYK,North Yorkshire,two-tier county,GB,ENG,,north york
NTH,Northamptonshire,two-tier county,GB,ENG,,northampton
NTT,Nottinghamshire,two-tier county,GB,ENG,,
OXF,Oxfordshire,two-tier county,GB,ENG,,oxford
SOM,Somerset,two-tier county,GB,ENG,,
STS,Staffordshire,two-tier county,GB,ENG,,stafford
SFK,Suffolk,two-tier county,GB,ENG,,
SRY,Surrey,two-tier county,GB,ENG,,
WAR,Warwickshire,two-tier county,GB,ENG,,warwick
WSX,West Sussex,two-tier county,GB,ENG,,
WOR,Worcestershire,two-tier county,GB,ENG,,worcester
LND,"London, City of",city corporation,GB,ENG,,city of london
BDG,Barking and Dagenham,London borough,GB,ENG,,barking
BNE,Barnet,London borough,GB,ENG,,
BEX,Bexley,London borough,GB,ENG,,
BEN,Brent,London borough,GB,ENG,,
BRY,Bromley,London borough,GB,ENG,,
CMD,Camden,London borough,GB,ENG,,
CRY,Croydon,London borough,GB,ENG,,
EAL,Ealing,London borough,GB,ENG,,
ENF,Enfield,London borough,GB,ENG,,
GRE,Greenwich,London borough,GB,ENG,,
HCK,Hackney,London borough,GB,ENG,,
HMF,Hammersmith and Fulham,London borough,GB,ENG,,hammersmith
HRY,Haringey,London borough,GB,ENG,,
HRW,Harrow,London borough,GB,ENG,,
HAV,Havering,London borough,GB,ENG,,
HIL,Hillingdon,London borough,GB,ENG,,
HNS,Hounslow,London borough,GB,ENG,,
ISL,Islington,London borough,GB,ENG,,
KEC,Kensington and Chelsea,London borough,GB,ENG,,kensington
KTT,Kingston upon Thames,London borough,GB,ENG,,
LBH,Lambeth,London borough,GB,ENG,,
LEW,Lewisham,London borough,GB,ENG,,
MRT,Merton,London borough,GB,ENG,,
NWM,Newham,London borough,GB,ENG,,
RDB,Redbridge,London borough,GB,ENG,,
RIC,Richmond upon Thames,London borough,GB,ENG,,
SWK,Southwark,London borough,GB,ENG,,
STN,Sutton,London borough,GB,ENG,,
TWH,Tower Hamlets,London borough,GB,ENG,,
WFT,Waltham Forest,London borough,GB,ENG,,
WND,Wandsworth,London borough,GB,ENG,,
WSM,Westminster,London borough,GB,ENG,,
BNS,Barnsley,metropolitan district,GB,ENG,,
BIR,Birmingham,metropolitan district,GB,ENG,,
BOL,Bolton,metropolitan district,GB,ENG,,
BRD,Bradford,metropolitan district,GB,ENG,,
BUR,Bury,metropolitan district,GB,ENG,,
CLD,Calderdale,metropolitan district,GB,ENG,,
COV,Coventry,metropolitan district,GB,ENG,,
DNC,Doncaster,metropolitan district,GB,ENG,,
DUD,Dudley,metropolitan district,GB,ENG,,
GAT,Gateshead,metropolitan district,GB,ENG,,
KIR,Kirklees,metropolitan district,GB,ENG,,
KWL,Knowsley,metropolitan district,GB,ENG,,
LDS,Leeds,metropolitan district,GB,ENG,,
LIV,Liverpool,metropolitan district,GB,ENG,,
MAN,Manchester,metropolitan district,GB,ENG,,
NET,Newcastle upon Tyne,metropolitan district,GB,ENG,,newcastle
NTY,North Tyneside,metropolitan district,GB,ENG,,
OLD,Oldham,metropolitan district,GB,ENG,,
RCH,Rochdale,metropolitan district,GB,ENG,,
ROT,Rotherham,metropolitan district,GB,ENG,,
SHN,St. Helens,metropolitan district,GB,ENG,,
SLF,Salford,metropolitan district,GB,ENG,,
SAW,Sandwell,metropolitan district,GB,ENG,,
SFT,Sefton,metropolitan district,GB,ENG,,
SHF,Sheffield,metropolitan district,GB,ENG,,
SOL,Solihull,metropolitan district,GB,ENG,,
STY,South Tyneside,metropolitan district,GB,ENG,,
SKP,Stockport,metropolitan district,GB,ENG,,
SND,Sunderland,metropolitan district,GB,ENG,,
TAM,Tameside,metropolitan district,GB,ENG,,
TRF,Trafford,metropolitan district,GB,ENG,,
WKF,Wakefield,metropolitan district,GB,ENG,,
WLL,Walsall,metropolitan district,GB,ENG,,
WGN,Wigan,metropolitan district,GB,ENG,,
WRL,Wirral,metropolitan district,GB,ENG,,
WLV,Wolverhampton,metropolitan district,GB,ENG,,
BAS,Bath and North East Somerset,unitary authority,GB,ENG,,bath
BDF,Bedford,unitary authority,GB,ENG,,bedford borough
BBD,Blackburn with Darwen,unitary authority,GB,ENG,,blackburn
BPL,Blackpool,unitary authority,GB,ENG,,
BMH,Bournemouth,unitary authority,GB,ENG,,
BRC,Bracknell Forest,unitary authority,GB,ENG,,
BNH,Brighton and Hove,unitary authority,GB,ENG,,
BST,"City of Bristol",unitary authority,GB,ENG,,bristol
CBF,Central Bedfordshire,unitary authority,GB,ENG,,
CHE,Cheshire East,unitary authority,GB,ENG,,
CHW,Cheshire West and Chester,unitary authority,GB,ENG,,
CON,Cornwall,unitary authority,GB,ENG,,
DAL,Darlington,unitary authority,GB,ENG,,
DER,Derby,unitary authority,GB,ENG,,
DUR,"Durham, County",unitary authority,GB,ENG,,county durham
ERY,East Riding of Yorkshire,unitary authority,GB,ENG,,east riding
HAL,Halton,unitary authority,GB,ENG,,
HPL,Hartlepool,unitary authority,GB,ENG,,
HEF,Herefordshire,unitary authority,GB,ENG,,
IOW,Isle of Wight,unitary authority,GB,ENG,,
IOS,Isles of Scilly,unitary authority,GB,ENG,,
KHL,Kingston upon Hull,unitary authority,GB,ENG,,city of kingston upon hull
LCE,Leicester,unitary authority,GB,ENG,,
LUT,Luton,unitary authority,GB,ENG,,
MDW,Medway,unitary authority,GB,ENG,,
MDB,Middlesbrough,unitary authority,GB,ENG,,
MIK,Milton Keynes,unitary authority,GB,ENG,,
NEL,North East Lincolnshire,unitary authority,GB,ENG,,
NLN,North Lincolnshire,unitary authority,GB,ENG,,
NSM,North Somerset,unitary authority,GB,ENG,,
NBL,Northumberland,unitary authority,GB,ENG,,
NGM,Nottingham,unitary authority,GB,ENG,,
PTE,Peterborough,unitary authority,GB,ENG,,
PLY,Plymouth,unitary authority,GB,ENG,,
POL,Poole,unitary authority,GB,ENG,,
POR,Portsmouth,unitary authority,GB,ENG,,
RDG,Reading,unitary authority,GB,ENG,,
RCC,Redcar and Cleveland,unitary authority,GB,ENG,,
RUT,Rutland,unitary authority,GB,ENG,,
SHR,Shropshire,unitary authority,GB,ENG,,
SLG,Slough,unitary authority,GB,ENG,,
SGC,South Gloucestershire,unitary authority,GB,ENG,,
STH,Southampton,unitary authority,GB,ENG,,
SOS,Southend-on-Sea,unitary authority,GB,ENG,,
STT,Stockton-on-Tees,unitary authority,GB,ENG,,
STE,Stoke-on-Trent,unitary authority,GB,ENG,,
SWD,Swindon,unitary authority,GB,ENG,,
TFW,Telford and Wrekin,unitary authority,GB,ENG,,
THR,Thurrock,unitary authority,GB,ENG,,
TOB,Torbay,unitary authority,GB,ENG,,
WRT,Warrington,unitary authority,GB,ENG,,
WBK,West Berkshire,unitary authority,GB,ENG,,
WIL,Wiltshire,unitary authority,GB,ENG,,
WNM,Windsor and Maidenhead,unitary authority,GB,ENG,,
WOK,Wokingham,unitary authority,GB,ENG,,
YOR,York,unitary authority,GB,ENG,,
ANT,Antrim,district council area,GB,NIR,,county antrim
ARD,Ards,district council area,GB,NIR,,
ARM,Armagh,district council area,GB,NIR,,county armagh
BLA,Ballymena,district council area,GB,NIR,,
BLY,Ballymoney,district council area,GB,NIR,,
BNB,Banbridge,district council area,GB,NIR,,
BFS,Belfast,district council area,GB,NIR,,
CKF,Carrickfergus,district council area,GB,NIR,,
CSR,Castlereagh,district council area,GB,NIR,,
CLR,Coleraine,district council area,GB,NIR,,
CKT,Cookstown,district council area,GB,NIR,,
CGV,Craigavon,district council area,GB,NIR,,
DRY,Derry,district council area,GB,NIR,,londonderry
DOW,Down,district council area,GB,NIR,,county down
DGN,Dungannon and South Tyrone,district council area,GB,NIR,,dungannon
FER,Fermanagh,district council area,GB,NIR,,county fermanagh
LRN,Larne,district council area,GB,NIR,,
LMV,Limavady,district council area,GB,NIR,,
LSB,Lisburn,district council area,GB,NIR,,
MFT,Magherafelt,district council area,GB,NIR,,
MYL,Moyle,district council area,GB,NIR,,
NYM,Newry and Mourne District,district council area,GB,NIR,,newry and mourne
NTA,Newtownabbey,district council area,GB,NIR,,
NDN,North Down,district council area,GB,NIR,,
OMH,Omagh,district council area,GB,NIR,,
STB,Strabane,district council area,GB,NIR,,
ABE,Aberdeen City,council area,GB,SCT,,
ABD,Aberdeenshire,council area,GB,SCT,,
ANS,Angus,council area,GB,SCT,,
AGB,Argyll and Bute,council area,GB,SCT,,
CLK,Clackmannanshire,council area,GB,SCT,,
DGY,Dumfries and Galloway,council area,GB,SCT,,
DND,Dundee City,council area,GB,SCT,,
EAY,East Ayrshire,council area,GB,SCT,,
EDU,East Dunbartonshire,council area,GB,SCT,,
ELN,East Lothian,council area,GB,SCT,,
ERW,East Renfrewshire,council area,GB,SCT,,
EDH,"Edinburgh, City of",council area,GB,SCT,,city of edinburgh
ELS,Eilean Siar,council area,GB,SCT,,
FAL,Falkirk,council area,GB,SCT,,
FIF,Fife,council area,GB,SCT,,
GLG,Glasgow City,council area,GB,SCT,,
HLD,Highland,council area,GB,SCT,,inverness-shire
IVC,Inverclyde,council area,GB,SCT,,
MLN,Midlothian,council area,GB,SCT,,
MRY,Moray,council area,GB,SCT,,
NAY,North Ayrshire,council area,GB,SCT,,
NLK,North Lanarkshire,council area,GB,SCT,,
ORK,Orkney Islands,council area,GB,SCT,,
PKN,Perth and Kinross,council area,GB,SCT,,
RFW,Renfrewshire,council area,GB,SCT,,
SCB,"Scottish Borders, The",council area,GB,SCT,,the scottish borders
ZET,Shetland Islands,council area,GB,SCT,,
SAY,South Ayrshire,council area,GB,SCT,,
SLK,South Lanarkshire,council area,GB,SCT,,
STG,Stirling,council area,GB,SCT,,
WDU,West Dunbartonshire,council area,GB,SCT,,
WLN,West Lothian,council area,GB,SCT,,
BGW,Blaenau Gwent,unitary authority,GB,WLS,,
BGE,Bridgend,unitary authority,GB,WLS,POG,Pen-y-bont ar Ogwr
CAY,Caerphilly,unitary authority,GB,WLS,CAF,Caerffili
CRF,Cardiff,unitary authority,GB,WLS,CRD,Caerdydd
CMN,Carmarthenshire,unitary authority,GB,WLS,GFY,Sir Gaerfyrddin
CGN,Ceredigion,unitary authority,GB,WLS,CGN,Sir Ceredigion
CWY,Conwy,unitary authority,GB,WLS,,
DEN,Denbighshire,unitary authority,GB,WLS,DDB,Sir Ddinbych
FLN,Flintshire,unitary authority,GB,WLS,FFL,Sir y Fflint
GWN,Gwynedd,unitary authority,GB,WLS,,
AGY,Isle of Anglesey,unitary authority,GB,WLS,YNM,Sir Ynys Môn
MTY,Merthyr Tydfil,unitary authority,GB,WLS,MTU,Merthyr Tudful
MON,Monmouthshire,unitary authority,GB,WLS,FYN,Sir Fynwy
NTL,Neath Port Talbot,unitary authority,GB,WLS,CTL,Castell-nedd Port Talbot
NWP,Newport,unitary authority,GB,WLS,CNW,Casnewydd
PEM,Pembrokeshire,unitary authority,GB,WLS,BNF,Sir Benfro
POW,Powys,unitary authority,GB,WLS,,
RCT,"Rhondda, Cynon, Taff",unitary authority,GB,WLS,RCT,"Rhondda, Cynon, Taf"
SWA,Swansea,unitary authority,GB,WLS,ATA,Abertawe
TOF,Torfaen,unitary authority,GB,WLS,TOF,Tor-faen
VGL,"The Vale of Glamorgan",unitary authority,GB,WLS,BMG,Bro Morgannwg
WRX,Wrexham,unitary authority,GB,WLS,WRC,Wrecsam
GGY,Guernsey,unitary authority,GG,GGY,,
JEY,Jersey,unitary authority,JE,JEY,,
IOM,Isle of Man,unitary authority,IM,IMN,,iom
GLN,Greater London,metropolitan county,GB,ENG,,
GMA,Greater Manchester,metropolitan county,GB,ENG,,
