GBR,GB,826,"United Kingdom",
ENG,GB,826,"England",GBR
NIR,GB,826,"Northern Ireland",GBR
SCT,GB,826,"Scotland",GBR
WLS,GB,826,"Wales",GBR
GGY,GG,831,"Guernsey",
JEY,JE,832,"Jersey",
IMN,IM,833,"Isle of Man",
